[
	{
		"include": [
			"~/.config/waybar/modules/audio.jsonc",
			"~/.config/waybar/modules/buttons.jsonc",
			"~/.config/waybar/modules/disk.jsonc",
			"~/.config/waybar/modules/monitor/small.jsonc",
			"~/.config/waybar/modules/monitor/normal.jsonc",
			"~/.config/waybar/modules/update.jsonc",
			"~/.config/waybar/modules/workspaces.jsonc",
			"~/.config/waybar/modules/notification.jsonc"
		],
		"layer": "top",
		"spacing": 10,
		"position": "top",
		"exclusive": true,
		"passthrough": false,
		//"reload_style_on_change": true,
		"modules-left": [
			"group/left",
			"hyprland/workspaces#compact"
		],
		"modules-center": [],
		"modules-right": [
			"group/right"
		],
		"group/buttons": {
			"orientation": "horizontal",
			"modules": [
				"custom/wallpaper",
				"idle_inhibitor",
				"custom/audioswitch",
				"pulseaudio#input",
				"pulseaudio#output"
			]
		},
		"group/left": {
			"orientation": "inherit",
			"modules": [
				"privacy",
				"group/buttons",
				"group/mpris-art-compact"
			]
		},
		"group/right": {
			"orientation": "inherit",
			"modules": [
				"custom/packagecheck#compact",
				"group/monitor#compact",
				"battery#compact",
				"backlight",
				"custom/notification"
			]
		},
		"cava": {}
	},
	{
		"include": [
			"~/.config/waybar/modules/time.jsonc",
			"~/.config/waybar/modules/monitor/normal.jsonc",
			"~/.config/waybar/modules/monitor/small.jsonc"
		],
		"layer": "top",
		"position": "left",
		"margin-top": 10,
		"exclusive": true,
		"passthrough": false,
		//"reload_style_on_change": true,
		"modules-left": [
			"group/top"
		],
		"modules-right": [
			"tray"
		],
		"group/top": {
			"orientation": "vertical",
			"modules": [
				"custom/weather",
				"clock"
			]
		},
		"tray": {
			"icon-size": 20,
			"spacing": 10
		}
	}
]
